{
    "topmenu":
    [
        {
            "item": "File"
        },
        {
            "item": "Help"
        },
        {
            "item": "Edit"
        },
        {
            "item": "View"
        },
        {
            "item": "Go"
        },
        {
            "item": "Tools"
        },
        {
            "item": "Actions"
        }
    ]
}
