[
	{
		"id": "1",
		"firstName": "Tom",
		"lastName": "Cruise"
	},
	{
		"id": "2",
		"firstName": "Maria",
		"lastName": "Sharapova"
	},
	{
		"id": "3",
		"firstName": "James",
		"lastName": "Bond"
	},
	{
		"id": "4",
		"firstName": "Ryan",
		"lastName": "Dhal"
	},
	{
		"id": "5",
		"firstName": "Mark",
		"lastName": "Zuckerberg"
	}
]